pageObjects/completeprofilePage.class
pageObjects/addproductPage.class
pageObjects/categorylandingPage.class
java/pageObjects/grouplisttalkPage.class
utils/constant.class
stepDefinitions/completeprofileSteps.class
stepDefinitions/addproductSteps.class
pageObjects/basePage.class
pageObjects/productdetailPage.class
pageObjects/reviewsPage.class
pageObjects/homePage.class
stepDefinitions/registerSteps.class
pageObjects/loginPage.class
java/pageObjects/groupdetailPage.class
stepDefinitions/loginSteps.class
utils/driverFactory.class
java/stepDefinitions/conversationSteps.class
java/pageObjects/topicdetailPage.class
utils/readConfigFile.class
stepDefinitions/masterHooks.class
stepDefinitions/addreviewSteps.class
pageObjects/registerPage.class
